<?xml version="1.0" encoding="utf-8"?>
<COLLADA xmlns="http://www.collada.org/2005/11/COLLADASchema" version="1.4.1" xmlns:xsi="http://www.w3.org/2001/XMLSchema-instance">
  <asset>
    <contributor>
      <author>Blender User</author>
      <authoring_tool>Blender 2.81.16 commit date:2019-12-04, commit time:11:32, hash:f1aa4d18d49d</authoring_tool>
    </contributor>
    <created>2019-12-12T08:41:04</created>
    <modified>2019-12-12T08:41:04</modified>
    <unit name="meter" meter="1"/>
    <up_axis>Z_UP</up_axis>
  </asset>
  <library_images/>
  <library_geometries>
    <geometry id="Icosphere-mesh" name="Icosphere">
      <mesh>
        <source id="Icosphere-mesh-positions">
          <float_array id="Icosphere-mesh-positions-array" count="126">0 0 -1 0.7236073 -0.5257253 -0.4472195 -0.276388 -0.8506492 -0.4472199 -0.8944262 0 -0.4472156 -0.276388 0.8506492 -0.4472199 0.7236073 0.5257253 -0.4472195 0.276388 -0.8506492 0.4472199 -0.7236073 -0.5257253 0.4472195 -0.7236073 0.5257253 0.4472195 0.276388 0.8506492 0.4472199 0.8944262 0 0.4472156 0 0 1 -0.1624554 -0.4999952 -0.8506544 0.4253227 -0.3090114 -0.8506542 0.2628688 -0.8090116 -0.5257377 0.8506479 0 -0.5257359 0.4253227 0.3090114 -0.8506542 -0.5257298 0 -0.8506517 -0.6881894 -0.4999969 -0.5257362 -0.1624554 0.4999952 -0.8506544 -0.6881894 0.4999969 -0.5257362 0.2628688 0.8090116 -0.5257377 0.9510579 -0.3090126 0 0.9510579 0.3090126 0 0 -1 0 0.5877856 -0.8090167 0 -0.9510579 -0.3090126 0 -0.5877856 -0.8090167 0 -0.5877856 0.8090167 0 -0.9510579 0.3090126 0 0.5877856 0.8090167 0 0 1 0 0.6881894 -0.4999969 0.5257362 -0.2628688 -0.8090116 0.5257377 -0.8506479 0 0.5257359 -0.2628688 0.8090116 0.5257377 0.6881894 0.4999969 0.5257362 0.1624554 -0.4999952 0.8506544 0.5257298 0 0.8506517 -0.4253227 -0.3090114 0.8506542 -0.4253227 0.3090114 0.8506542 0.1624554 0.4999952 0.8506544</float_array>
          <technique_common>
            <accessor source="#Icosphere-mesh-positions-array" count="42" stride="3">
              <param name="X" type="float"/>
              <param name="Y" type="float"/>
              <param name="Z" type="float"/>
            </accessor>
          </technique_common>
        </source>
        <source id="Icosphere-mesh-normals">
          <float_array id="Icosphere-mesh-normals-array" count="240">0.1023808 -0.3150898 -0.9435235 0.7002241 -0.2680317 -0.6616988 -0.2680341 -0.1947365 -0.9435229 -0.2680341 0.1947365 -0.9435229 0.1023808 0.3150898 -0.9435235 0.9049891 -0.2680316 -0.3303847 0.02474659 -0.9435214 -0.3303861 -0.8896973 -0.3150947 -0.3303849 -0.5746018 0.7487835 -0.3303877 0.5345759 0.7778645 -0.3303866 0.802609 -0.5831265 -0.1256273 -0.306569 -0.9435216 -0.1256289 -0.9920774 0 -0.1256284 -0.306569 0.9435216 -0.1256289 0.802609 0.5831265 -0.1256273 0.4089462 -0.6284251 0.6616986 -0.4712998 -0.5831223 0.6616985 -0.7002241 0.2680317 0.6616988 0.03853034 0.7487788 0.6616991 0.7240422 0.1947361 0.6616954 0.2680341 0.1947365 0.9435229 0.4911195 0.356821 0.7946575 0.4089463 0.6284251 0.6616985 -0.1023808 0.3150899 0.9435235 -0.1875941 0.5773454 0.7946578 -0.4712998 0.5831223 0.6616986 -0.3313045 0 0.943524 -0.6070605 0 0.7946557 -0.7002241 -0.2680318 0.6616988 -0.1023808 -0.3150898 0.9435235 -0.1875941 -0.5773454 0.7946578 0.03853034 -0.7487789 0.6616991 0.2680341 -0.1947365 0.9435229 0.4911194 -0.356821 0.7946575 0.7240422 -0.1947361 0.6616954 0.8896973 0.3150947 0.3303849 0.7946556 0.5773479 0.1875951 0.5746018 0.7487835 0.3303877 -0.02474659 0.9435214 0.3303861 -0.303531 0.9341715 0.1875973 -0.534576 0.7778646 0.3303866 -0.9049891 0.2680316 0.3303846 -0.9822458 0 0.1875985 -0.9049891 -0.2680316 0.3303846 -0.534576 -0.7778646 0.3303866 -0.303531 -0.9341715 0.1875973 -0.02474659 -0.9435214 0.3303861 0.5746018 -0.7487835 0.3303877 0.7946556 -0.5773479 0.1875951 0.8896973 -0.3150947 0.3303849 0.306569 0.9435216 0.1256287 0.303531 0.9341715 -0.1875973 0.02474659 0.9435214 -0.3303861 -0.802609 0.5831265 0.1256274 -0.7946556 0.5773479 -0.1875951 -0.8896973 0.3150947 -0.3303849 -0.802609 -0.5831265 0.1256274 -0.7946556 -0.5773479 -0.1875951 -0.5746018 -0.7487835 -0.3303877 0.306569 -0.9435216 0.1256287 0.303531 -0.9341715 -0.1875973 0.5345759 -0.7778645 -0.3303867 0.9920774 0 0.1256284 0.9822458 0 -0.1875985 0.9049891 0.2680316 -0.3303847 0.4712998 0.5831223 -0.6616986 0.1875941 0.5773454 -0.7946578 -0.0385304 0.7487789 -0.6616991 -0.4089462 0.6284251 -0.6616985 -0.4911194 0.356821 -0.7946575 -0.7240422 0.1947361 -0.6616954 -0.7240422 -0.1947361 -0.6616954 -0.4911195 -0.356821 -0.7946575 -0.4089462 -0.6284251 -0.6616985 0.7002241 0.2680318 -0.6616988 0.6070605 0 -0.7946556 0.3313045 0 -0.943524 -0.0385304 -0.7487789 -0.6616991 0.1875941 -0.5773454 -0.7946578 0.4712998 -0.5831223 -0.6616986</float_array>
          <technique_common>
            <accessor source="#Icosphere-mesh-normals-array" count="80" stride="3">
              <param name="X" type="float"/>
              <param name="Y" type="float"/>
              <param name="Z" type="float"/>
            </accessor>
          </technique_common>
        </source>
        <source id="Icosphere-mesh-map-0">
          <float_array id="Icosphere-mesh-map-0-array" count="480">0.818181 0 0.7727265 0.07873046 0.8636355 0.07873046 0.727272 0.157461 0.6818175 0.07873046 0.636363 0.157461 0.090909 0 0.0454545 0.07873046 0.1363635 0.07873046 0.272727 0 0.2272725 0.07873046 0.3181815 0.07873046 0.454545 0 0.4090905 0.07873046 0.4999995 0.07873046 0.727272 0.157461 0.636363 0.157461 0.6818175 0.236191 0.90909 0.157461 0.818181 0.157461 0.8636355 0.236191 0.181818 0.157461 0.090909 0.157461 0.1363635 0.236191 0.363636 0.157461 0.272727 0.157461 0.3181815 0.236191 0.545454 0.157461 0.454545 0.157461 0.4999995 0.236191 0.727272 0.157461 0.6818175 0.236191 0.7727265 0.236191 0.90909 0.157461 0.8636355 0.236191 0.954545 0.236191 0.181818 0.157461 0.1363635 0.236191 0.2272725 0.236191 0.363636 0.157461 0.3181815 0.236191 0.4090905 0.236191 0.545454 0.157461 0.4999995 0.236191 0.5909085 0.236191 0.818181 0.314921 0.727272 0.314921 0.7727265 0.3936515 1 0.314921 0.9090905 0.314921 0.954545 0.3936515 0.272727 0.314921 0.181818 0.314921 0.2272725 0.3936515 0.454545 0.314921 0.363636 0.314921 0.4090905 0.3936515 0.636363 0.314921 0.545454 0.314921 0.5909085 0.3936515 0.5909085 0.3936515 0.4999995 0.3936515 0.545454 0.472382 0.5909085 0.3936515 0.545454 0.314921 0.4999995 0.3936515 0.545454 0.314921 0.454545 0.314921 0.4999995 0.3936515 0.4090905 0.3936515 0.3181815 0.3936515 0.363636 0.472382 0.4090905 0.3936515 0.363636 0.314921 0.3181815 0.3936515 0.363636 0.314921 0.272727 0.314921 0.3181815 0.3936515 0.2272725 0.3936515 0.1363635 0.3936515 0.181818 0.472382 0.2272725 0.3936515 0.181818 0.314921 0.1363635 0.3936515 0.181818 0.314921 0.090909 0.314921 0.1363635 0.3936515 0.954545 0.3936515 0.8636355 0.3936515 0.90909 0.472382 0.954545 0.3936515 0.9090905 0.314921 0.8636355 0.3936515 0.9090905 0.314921 0.818181 0.314921 0.8636355 0.3936515 0.7727265 0.3936515 0.6818175 0.3936515 0.727272 0.472382 0.7727265 0.3936515 0.727272 0.314921 0.6818175 0.3936515 0.727272 0.314921 0.636363 0.314921 0.6818175 0.3936515 0.5909085 0.236191 0.545454 0.314921 0.636363 0.314921 0.5909085 0.236191 0.4999995 0.236191 0.545454 0.314921 0.4999995 0.236191 0.454545 0.314921 0.545454 0.314921 0.4090905 0.236191 0.363636 0.314921 0.454545 0.314921 0.4090905 0.236191 0.3181815 0.236191 0.363636 0.314921 0.3181815 0.236191 0.272727 0.314921 0.363636 0.314921 0.2272725 0.236191 0.181818 0.314921 0.272727 0.314921 0.2272725 0.236191 0.1363635 0.236191 0.181818 0.314921 0.1363635 0.236191 0.090909 0.314921 0.181818 0.314921 0.954545 0.236191 0.9090905 0.314921 1 0.314921 0.954545 0.236191 0.8636355 0.236191 0.9090905 0.314921 0.8636355 0.236191 0.818181 0.314921 0.9090905 0.314921 0.7727265 0.236191 0.727272 0.314921 0.818181 0.314921 0.7727265 0.236191 0.6818175 0.236191 0.727272 0.314921 0.6818175 0.236191 0.636363 0.314921 0.727272 0.314921 0.4999995 0.236191 0.4090905 0.236191 0.454545 0.314921 0.4999995 0.236191 0.454545 0.157461 0.4090905 0.236191 0.454545 0.157461 0.363636 0.157461 0.4090905 0.236191 0.3181815 0.236191 0.2272725 0.236191 0.272727 0.314921 0.3181815 0.236191 0.272727 0.157461 0.2272725 0.236191 0.272727 0.157461 0.181818 0.157461 0.2272725 0.236191 0.1363635 0.236191 0.0454545 0.236191 0.090909 0.314921 0.1363635 0.236191 0.090909 0.157461 0.0454545 0.236191 0.090909 0.157461 0 0.157461 0.0454545 0.236191 0.8636355 0.236191 0.7727265 0.236191 0.818181 0.314921 0.8636355 0.236191 0.818181 0.157461 0.7727265 0.236191 0.818181 0.157461 0.727272 0.157461 0.7727265 0.236191 0.6818175 0.236191 0.5909085 0.236191 0.636363 0.314921 0.6818175 0.236191 0.636363 0.157461 0.5909085 0.236191 0.636363 0.157461 0.545454 0.157461 0.5909085 0.236191 0.4999995 0.07873046 0.454545 0.157461 0.545454 0.157461 0.4999995 0.07873046 0.4090905 0.07873046 0.454545 0.157461 0.4090905 0.07873046 0.363636 0.157461 0.454545 0.157461 0.3181815 0.07873046 0.272727 0.157461 0.363636 0.157461 0.3181815 0.07873046 0.2272725 0.07873046 0.272727 0.157461 0.2272725 0.07873046 0.181818 0.157461 0.272727 0.157461 0.1363635 0.07873046 0.090909 0.157461 0.181818 0.157461 0.1363635 0.07873046 0.0454545 0.07873046 0.090909 0.157461 0.0454545 0.07873046 0 0.157461 0.090909 0.157461 0.636363 0.157461 0.5909085 0.07873046 0.545454 0.157461 0.636363 0.157461 0.6818175 0.07873046 0.5909085 0.07873046 0.6818175 0.07873046 0.636363 0 0.5909085 0.07873046 0.8636355 0.07873046 0.818181 0.157461 0.90909 0.157461 0.8636355 0.07873046 0.7727265 0.07873046 0.818181 0.157461 0.7727265 0.07873046 0.727272 0.157461 0.818181 0.157461</float_array>
          <technique_common>
            <accessor source="#Icosphere-mesh-map-0-array" count="240" stride="2">
              <param name="S" type="float"/>
              <param name="T" type="float"/>
            </accessor>
          </technique_common>
        </source>
        <vertices id="Icosphere-mesh-vertices">
          <input semantic="POSITION" source="#Icosphere-mesh-positions"/>
        </vertices>
        <triangles count="80">
          <input semantic="VERTEX" source="#Icosphere-mesh-vertices" offset="0"/>
          <input semantic="NORMAL" source="#Icosphere-mesh-normals" offset="1"/>
          <input semantic="TEXCOORD" source="#Icosphere-mesh-map-0" offset="2" set="0"/>
          <p>0 0 0 13 0 1 12 0 2 1 1 3 13 1 4 15 1 5 0 2 6 12 2 7 17 2 8 0 3 9 17 3 10 19 3 11 0 4 12 19 4 13 16 4 14 1 5 15 15 5 16 22 5 17 2 6 18 14 6 19 24 6 20 3 7 21 18 7 22 26 7 23 4 8 24 20 8 25 28 8 26 5 9 27 21 9 28 30 9 29 1 10 30 22 10 31 25 10 32 2 11 33 24 11 34 27 11 35 3 12 36 26 12 37 29 12 38 4 13 39 28 13 40 31 13 41 5 14 42 30 14 43 23 14 44 6 15 45 32 15 46 37 15 47 7 16 48 33 16 49 39 16 50 8 17 51 34 17 52 40 17 53 9 18 54 35 18 55 41 18 56 10 19 57 36 19 58 38 19 59 38 20 60 41 20 61 11 20 62 38 21 63 36 21 64 41 21 65 36 22 66 9 22 67 41 22 68 41 23 69 40 23 70 11 23 71 41 24 72 35 24 73 40 24 74 35 25 75 8 25 76 40 25 77 40 26 78 39 26 79 11 26 80 40 27 81 34 27 82 39 27 83 34 28 84 7 28 85 39 28 86 39 29 87 37 29 88 11 29 89 39 30 90 33 30 91 37 30 92 33 31 93 6 31 94 37 31 95 37 32 96 38 32 97 11 32 98 37 33 99 32 33 100 38 33 101 32 34 102 10 34 103 38 34 104 23 35 105 36 35 106 10 35 107 23 36 108 30 36 109 36 36 110 30 37 111 9 37 112 36 37 113 31 38 114 35 38 115 9 38 116 31 39 117 28 39 118 35 39 119 28 40 120 8 40 121 35 40 122 29 41 123 34 41 124 8 41 125 29 42 126 26 42 127 34 42 128 26 43 129 7 43 130 34 43 131 27 44 132 33 44 133 7 44 134 27 45 135 24 45 136 33 45 137 24 46 138 6 46 139 33 46 140 25 47 141 32 47 142 6 47 143 25 48 144 22 48 145 32 48 146 22 49 147 10 49 148 32 49 149 30 50 150 31 50 151 9 50 152 30 51 153 21 51 154 31 51 155 21 52 156 4 52 157 31 52 158 28 53 159 29 53 160 8 53 161 28 54 162 20 54 163 29 54 164 20 55 165 3 55 166 29 55 167 26 56 168 27 56 169 7 56 170 26 57 171 18 57 172 27 57 173 18 58 174 2 58 175 27 58 176 24 59 177 25 59 178 6 59 179 24 60 180 14 60 181 25 60 182 14 61 183 1 61 184 25 61 185 22 62 186 23 62 187 10 62 188 22 63 189 15 63 190 23 63 191 15 64 192 5 64 193 23 64 194 16 65 195 21 65 196 5 65 197 16 66 198 19 66 199 21 66 200 19 67 201 4 67 202 21 67 203 19 68 204 20 68 205 4 68 206 19 69 207 17 69 208 20 69 209 17 70 210 3 70 211 20 70 212 17 71 213 18 71 214 3 71 215 17 72 216 12 72 217 18 72 218 12 73 219 2 73 220 18 73 221 15 74 222 16 74 223 5 74 224 15 75 225 13 75 226 16 75 227 13 76 228 0 76 229 16 76 230 12 77 231 14 77 232 2 77 233 12 78 234 13 78 235 14 78 236 13 79 237 1 79 238 14 79 239</p>
        </triangles>
      </mesh>
    </geometry>
  </library_geometries>
  <library_visual_scenes>
    <visual_scene id="Scene" name="Scene">
      <node id="Icosphere" name="Icosphere" type="NODE">
        <matrix sid="transform">-0.2628652 0 0 0 0 0 0.25 0 0 0.25 0 0 0 0 0 1</matrix>
        <instance_geometry url="#Icosphere-mesh" name="Icosphere"/>
      </node>
    </visual_scene>
  </library_visual_scenes>
  <scene>
    <instance_visual_scene url="#Scene"/>
  </scene>
</COLLADA>